<?xml version="1.0" encoding="UTF-8" standalone="no"?>
<!-- Created with Inkscape (http://www.inkscape.org/) -->

<svg
   xmlns:dc="http://purl.org/dc/elements/1.1/"
   xmlns:cc="http://creativecommons.org/ns#"
   xmlns:rdf="http://www.w3.org/1999/02/22-rdf-syntax-ns#"
   xmlns:svg="http://www.w3.org/2000/svg"
   xmlns="http://www.w3.org/2000/svg"
   xmlns:xlink="http://www.w3.org/1999/xlink"
   xmlns:sodipodi="http://sodipodi.sourceforge.net/DTD/sodipodi-0.dtd"
   xmlns:inkscape="http://www.inkscape.org/namespaces/inkscape"
   width="512"
   height="512"
   id="svg2985"
   version="1.1"
   inkscape:version="0.48.2 r9819"
   sodipodi:docname="icon.svg">
  <defs
     id="defs2987">
    <linearGradient
       inkscape:collect="always"
       id="linearGradient3849">
      <stop
         style="stop-color:#ffffff;stop-opacity:1;"
         offset="0"
         id="stop3851" />
      <stop
         style="stop-color:#ffffff;stop-opacity:0;"
         offset="1"
         id="stop3853" />
    </linearGradient>
    <linearGradient
       id="linearGradient3759">
      <stop
         style="stop-color:#1ccb9c;stop-opacity:1;"
         offset="0"
         id="stop3761" />
      <stop
         style="stop-color:#1c839c;stop-opacity:1;"
         offset="1"
         id="stop3763" />
    </linearGradient>
    <linearGradient
       inkscape:collect="always"
       xlink:href="#linearGradient3759"
       id="linearGradient3765"
       x1="257.89548"
       y1="16.639706"
       x2="257.89548"
       y2="496.93567"
       gradientUnits="userSpaceOnUse"
       spreadMethod="pad"
       gradientTransform="matrix(0.99103591,0,0,0.98000908,2.075948,-401.55784)" />
    <linearGradient
       inkscape:collect="always"
       xlink:href="#linearGradient3759"
       id="linearGradient3846"
       gradientUnits="userSpaceOnUse"
       gradientTransform="matrix(1.075022,0,0,1.0630607,-19.443039,-15.19666)"
       spreadMethod="pad"
       x1="257.89548"
       y1="16.639706"
       x2="257.89548"
       y2="496.93567" />
    <linearGradient
       inkscape:collect="always"
       xlink:href="#linearGradient3849"
       id="linearGradient3855"
       x1="24"
       y1="23.59375"
       x2="165"
       y2="420.59375"
       gradientUnits="userSpaceOnUse"
       gradientTransform="matrix(0.921875,0,0,0.921875,20,-387.54842)" />
    <linearGradient
       inkscape:collect="always"
       xlink:href="#linearGradient3759"
       id="linearGradient3015"
       gradientUnits="userSpaceOnUse"
       gradientTransform="matrix(0.99103591,0,0,0.98000908,2.075948,-401.55784)"
       spreadMethod="pad"
       x1="257.89548"
       y1="16.639706"
       x2="257.89548"
       y2="496.93567" />
    <linearGradient
       inkscape:collect="always"
       xlink:href="#linearGradient3849"
       id="linearGradient3017"
       gradientUnits="userSpaceOnUse"
       gradientTransform="matrix(0.921875,0,0,0.921875,20,-387.54842)"
       x1="24"
       y1="23.59375"
       x2="165"
       y2="420.59375" />
    <linearGradient
       inkscape:collect="always"
       xlink:href="#linearGradient3849"
       id="linearGradient3023"
       gradientUnits="userSpaceOnUse"
       gradientTransform="matrix(0.921875,0,0,0.921875,20,-427.99999)"
       x1="24"
       y1="23.59375"
       x2="165"
       y2="420.59375" />
    <linearGradient
       inkscape:collect="always"
       xlink:href="#linearGradient3759"
       id="linearGradient3026"
       gradientUnits="userSpaceOnUse"
       gradientTransform="matrix(0.99103591,0,0,0.98000908,2.075948,-499.79127)"
       spreadMethod="pad"
       x1="257.89548"
       y1="16.639706"
       x2="257.89548"
       y2="496.93567" />
    <linearGradient
       inkscape:collect="always"
       xlink:href="#linearGradient3759"
       id="linearGradient3030"
       gradientUnits="userSpaceOnUse"
       gradientTransform="matrix(0.99103591,0,0,0.98000908,2.075948,-439.79127)"
       spreadMethod="pad"
       x1="257.89548"
       y1="16.639706"
       x2="257.89548"
       y2="496.93567" />
    <linearGradient
       inkscape:collect="always"
       xlink:href="#linearGradient3759"
       id="linearGradient3080"
       gradientUnits="userSpaceOnUse"
       gradientTransform="matrix(0.99103591,0,0,0.98000908,2.075948,8.20873)"
       spreadMethod="pad"
       x1="257.89548"
       y1="16.639706"
       x2="257.89548"
       y2="496.93567" />
    <linearGradient
       inkscape:collect="always"
       xlink:href="#linearGradient3759"
       id="linearGradient3853"
       gradientUnits="userSpaceOnUse"
       gradientTransform="matrix(0.99103591,0,0,0.98000908,2.075948,-442.00941)"
       spreadMethod="pad"
       x1="257.89548"
       y1="16.639706"
       x2="257.89548"
       y2="496.93567" />
  </defs>
  <sodipodi:namedview
     id="base"
     pagecolor="#ffffff"
     bordercolor="#666666"
     borderopacity="1.0"
     inkscape:pageopacity="0.0"
     inkscape:pageshadow="2"
     inkscape:zoom="1"
     inkscape:cx="210.85784"
     inkscape:cy="222.12815"
     inkscape:current-layer="layer2"
     showgrid="true"
     inkscape:document-units="px"
     inkscape:grid-bbox="true"
     inkscape:window-width="1920"
     inkscape:window-height="1058"
     inkscape:window-x="0"
     inkscape:window-y="0"
     inkscape:window-maximized="1" />
  <metadata
     id="metadata2990">
    <rdf:RDF>
      <cc:Work
         rdf:about="">
        <dc:format>image/svg+xml</dc:format>
        <dc:type
           rdf:resource="http://purl.org/dc/dcmitype/StillImage" />
        <dc:title />
      </cc:Work>
    </rdf:RDF>
  </metadata>
  <g
     id="layer1"
     inkscape:label="Layer1"
     inkscape:groupmode="layer"
     transform="translate(0,448)"
     style="display:inline">
    <rect
       style="fill:url(#linearGradient3853);fill-opacity:1;fill-rule:evenodd;stroke:none"
       id="rect2995"
       width="472"
       height="472"
       x="20"
       y="-428"
       ry="84.68428" />
    <path
       style="opacity:0.67704276;fill:url(#linearGradient3023);fill-opacity:1;fill-rule:evenodd;stroke:none"
       d="M 104.69727,-427.99999 C 57.782173,-427.99999 20,-390.21781 20,-343.30272 l 0,187.42871 c 169.8244,-2.93416 333.7219,-42.5222 472,-104.02783 l 0,-83.40088 c 0,-46.91509 -37.78217,-84.69727 -84.69727,-84.69727 l -302.60546,0 z"
       id="rect3844"
       inkscape:connector-curvature="0" />
  </g>
  <g
     inkscape:groupmode="layer"
     id="layer2"
     inkscape:label="Lager2">
    <path
       style="opacity:0.48638132;fill:#ffffff;fill-opacity:1;fill-rule:evenodd;stroke:none;display:inline"
       d="m 251.15406,20 c -1.65347,25.619163 0.95998,56.002039 9.40625,95.84375 l 7.46875,35.25 C 212.42718,201.33992 142.38051,265.88013 134.93531,357.4375 130.55481,411.54907 153.84494,459.24159 190.65406,492 l 35.4375,0 c -1.54834,-1.2637 -3.07294,-2.55345 -4.5625,-3.90625 -45.99768,-41.77438 -66.40605,-122.25905 -15.21875,-180.03125 25.2235,-28.46834 52.0838,-55.86442 77.125,-84.375 L 299.37281,299 c -77.5746,27.05638 -121.70396,142.51034 0.125,184.09375 -19.76452,-15.54989 -33.24156,-27.59534 -35.75,-42.3125 -9.17059,-53.80439 15.48856,-82.09451 46.78125,-89.21875 l 29.75,140.4375 17.15625,0 -30.8125,-142.25 c 49.00183,-0.27692 102.70614,45.13303 70.09375,121.5 -3.33913,7.81907 -8.10424,14.73697 -13.96875,20.75 l 27.875,0 c 33.75405,-43.36405 43.2127,-109.6445 11.75,-149.4375 -33.5284,-42.40564 -72.85078,-54.03945 -107.625,-47.625 l -18.625,-86 C 334.46652,163.27099 366.74013,113.94073 379.21656,52.46875 381.46567,41.387267 382.86395,30.523092 383.52906,20 l -26.90625,0 c -3.73215,17.828232 -11.43895,39.435977 -25.65625,64.875 -9.16735,16.40314 -27.7335,34.23791 -49.9375,54.4375 l -4.5,-20.75 C 265.74868,68.809603 271.48954,38.983219 277.49781,20 l -26.34375,0 z"
       id="rect3077"
       inkscape:connector-curvature="0" />
  </g>
</svg>
